/Users/christopher/Documents/University Stuff/2015-Sem. 3 (Fall)/CS 6340 Natural Language Processing/Project/riposte/developset
1999-W02-5
1999-W03-5
1999-W04-5
1999-W06-2
1999-W06-3
1999-W06-4
1999-W07-2
1999-W07-4
1999-W08-3
1999-W08-4
1999-W09-3
1999-W09-4
1999-W10-1
1999-W10-2
1999-W10-3
1999-W10-4
1999-W10-5
1999-W11-2
1999-W11-3
1999-W11-5
1999-W12-3
1999-W12-4
1999-W12-5
1999-W13-1
1999-W13-3
1999-W13-5
1999-W14-1
1999-W14-3
1999-W14-5
1999-W15-2
1999-W15-4
1999-W15-5
1999-W16-3
1999-W16-4
1999-W16-5
1999-W17-1
1999-W17-3
1999-W17-5
1999-W18-3
1999-W18-4
1999-W18-5
1999-W19-1
1999-W19-2
1999-W19-4
1999-W19-5
1999-W20-5
1999-W21-3
1999-W21-5
1999-W22-2
1999-W22-3
1999-W22-4
1999-W22-5
1999-W23-1
1999-W23-5
1999-W24-3
1999-W24-5
1999-W25-1
1999-W25-5
1999-W26-5
1999-W27-2
1999-W27-5
1999-W28-5
1999-W29-2
1999-W29-5
1999-W30-1
1999-W30-2
1999-W30-3
1999-W30-5
1999-W31-2
1999-W32-3
2000-W03-4
2000-W03-5
2000-W06-4


